digraph Timeline {
    splines="FALSE";

    // Colors to change them fast using find/replace:
    // timeline: #4878FA
    // track: #FA558D
    // shot: #61C76C
    // version: #FA558D
    // media: #FACF61

    graph [truecolor=true, bgcolor="#00000000", fontname = "courier"]
    node [fontname = "courier"]
    edge [fontname = "courier"]

    /* Entities */
    Timeline [label="Timeline", shape="rectangle", style="rounded", color="#4878FA"]
    
    
    /* Relationships */
    Timeline -> dot1 -> dot2 [arrowhead="none", color="#4878FA"]

    /* Ranks */
    { rank=same; Timeline; };
    { rank=same; Track2};
    { rank=same; dot_track_ver_n; track_ver_n};

    subgraph Track1 {
        rank=same
        dot1 [shape="point", style=invis]
        Track1 [label="Track 1", shape="rectangle", fillcolor="#FA558D", style=filled]

        dot1 -> Track1 [label="Track", arrowhead="none", color="#FA558D", fontcolor="#FA558D"]
    }
    subgraph Track2 {
        rank=same
        dot2 [shape="point", style=invis]
        Track2 [label="Track 2", shape="rectangle", fillcolor="#FA558D", style=filled]

        dot2 -> Track2 [label="Track", arrowhead="none", color="#FA558D", fontcolor="#FA558D"]
    }
    subgraph Stack {
        rank=same
        nodesep="0"
        dotStack [shape="point", style=invis]

        Stacks [label="<s0>Shot 1|<s1>Shot 2|<sn>...", shape="record", fillcolor="#61C76C", style=filled]


    }

    // Stack order
    Track2 -> Stacks [arrowhead="dot"]
    Stacks:s0 -> dot_track_ver_n [headlabel="Stack", arrowhead="none", color="#61C76C", fontcolor="#61C76C", labeldistance="4", labelangle=140]
    dot_track_ver_n -> dot_track_ver_n_1 -> dot_track_ver_n_0 [arrowhead="none", color="#61C76C"]

    subgraph TrackVerN {
        rank=same
        // Version n (last)
        dot_track_ver_n [shape="point", style=invis]
        track_ver_n [label="Version n", shape="rectangle", fillcolor="#FA558D", style=filled]
        clip_ver_n [label="Version n", shape="rectangle", fillcolor="#F7D854", style=filled]
        media_ver_n [shape=none, label="Media file", imagepos="ml", labelloc="m", image="blankfile.svg", width="2.2", fixedsize=true]

        dot_track_ver_n -> track_ver_n [label="Track", arrowhead="none", color="#FA558D", fontcolor="#FA558D"]
        track_ver_n -> clip_ver_n [label="Clip", arrowhead="none", color="#F7D854", fontcolor="#F7D854"]
        clip_ver_n -> media_ver_n [arrowhead="tee"]
    }
    subgraph N_1{
        rank=same
        // Version n-1
        dot_track_ver_n_1 [shape="point", style=invis]
        track_ver_n_1 [label="Version n-1", shape="rectangle", fillcolor="#FA558D", style=filled]
        clip_ver_n_1 [label="Version n-1", shape="rectangle", fillcolor="#F7D854", style=filled]
        media_ver_n_1 [shape=none, label="Media file", imagepos="ml", labelloc="m", image="blankfile.svg", width="2.2", fixedsize=true]
        
        dot_track_ver_n_1 -> track_ver_n_1 [label="Track", arrowhead="none", color="#FA558D", fontcolor="#FA558D"]
        track_ver_n_1 -> clip_ver_n_1 [label="Clip", arrowhead="none", color="#F7D854", fontcolor="#F7D854", fontcolor="#F7D854"]
        clip_ver_n_1 -> media_ver_n_1 [arrowhead="tee"]
    }
    subgraph n0{
        rank=same
        // Version 0
        dot_track_ver_n_0 [shape="point", style=invis]
        track_ver_n_0 [label="Version n0", shape="rectangle", fillcolor="#FA558D", style=filled]
        clip_ver_n_0 [label="Version n0", shape="rectangle", fillcolor="#F7D854", style=filled]
        media_ver_n_0 [shape=none, label="Media file", imagepos="ml", labelloc="m", image="blankfile.svg", width="2.2", fixedsize=true]

        dot_track_ver_n_0 -> track_ver_n_0 [label="Track", arrowhead="none", color="#FA558D", fontcolor="#FA558D"]
        track_ver_n_0 -> clip_ver_n_0 [label="Clip", arrowhead="none", color="#F7D854", fontcolor="#F7D854"]
        clip_ver_n_0 -> media_ver_n_0 [arrowhead="tee"]
    }
    
}